{
    "php": {
        "title": "پی اچ پی",
        "thumb": null
    },
    "javascript": {
        "title": "جاوااسکریپت",
        "thumb": null
    },
    "python": {
        "title": "پایتون",
        "thumb": null
    }
}